S8_preprocesamiento/data/DS0008.CSV

Memory Length,4000,
Trigger Level,0.000E+00,
Source,CH2,
Probe,1X,
Vertical Units,V,
Vertical Scale,1.000E-02,
Vertical Position,2.400E-03,
Horizontal Units,s,
Horizontal Scale,2.500E-04,
Horizontal Position,0.000E+00,
Horizontal Mode,Main,
Sampling Period,1.000E-06,
Firmware,V1.07,
Time, ,
Mode,Fast,
Waveform Data,
-134,
-134,
121,
121,
121,
121,
121,
121,
121,
121,
121,
121,
121,
121,
121,
121,
121,
121,
121,
121,
121,
121,
121,
121,
121,
121,
121,
121,
121,
121,
121,
121,
121,
121,
121,
121,
121,
121,
121,
121,
121,
121,
121,
121,
121,
121,
121,
121,
121,
121,
121,
121,
121,
121,
121,
121,
121,
121,
121,
121,
121,
121,
121,
121,
121,
121,
121,
121,
121,
121,
121,
121,
121,
121,
121,
121,
121,
121,
121,
121,
121,
121,
121,
121,
121,
121,
121,
121,
121,
121,
121,
121,
121,
121,
121,
121,
121,
121,
121,
121,
121,
121,
121,
121,
121,
121,
121,
121,
121,
121,
121,
121,
121,
121,
121,
121,
121,
121,
121,
121,
121,
121,
121,
121,
121,
121,
121,
121,
121,
121,
121,
121,
121,
121,
121,
121,
121,
121,
121,
121,
121,
121,
121,
121,
121,
121,
121,
121,
121,
121,
121,
121,
121,
121,
121,
121,
121,
121,
121,
121,
121,
121,
121,
121,
121,
121,
121,
121,
121,
121,
121,
121,
121,
121,
121,
121,
121,
121,
121,
121,
121,
121,
121,
121,
121,
121,
121,
121,
121,
121,
121,
121,
121,
121,
121,
121,
121,
121,
121,
121,
121,
121,
121,
121,
121,
121,
121,
121,
121,
121,
121,
121,
121,
121,
121,
121,
121,
121,
121,
121,
121,
121,
121,
121,
121,
121,
121,
121,
121,
121,
121,
121,
121,
121,
121,
121,
121,
121,
121,
121,
121,
121,
121,
121,
121,
121,
121,
121,
121,
121,
121,
121,
121,
121,
121,
121,
121,
121,
121,
121,
121,
121,
121,
121,
121,
121,
121,
121,
121,
121,
121,
121,
121,
121,
121,
121,
121,
121,
121,
121,
121,
121,
121,
121,
121,
121,
121,
121,
121,
121,
121,
121,
121,
121,
121,
121,
121,
121,
121,
121,
121,
121,
121,
121,
121,
121,
121,
121,
121,
121,
121,
121,
121,
121,
121,
121,
121,
121,
121,
121,
121,
121,
121,
121,
121,
121,
121,
121,
121,
121,
121,
121,
121,
121,
121,
121,
121,
121,
121,
121,
121,
121,
121,
121,
121,
121,
121,
121,
121,
121,
121,
121,
121,
121,
121,
121,
121,
121,
121,
121,
121,
121,
121,
121,
121,
121,
121,
121,
121,
121,
121,
121,
121,
121,
121,
121,
121,
121,
121,
121,
121,
121,
121,
121,
121,
121,
121,
121,
121,
121,
121,
121,
121,
121,
121,
121,
121,
121,
121,
121,
121,
121,
121,
121,
121,
121,
121,
121,
121,
121,
121,
121,
121,
121,
121,
121,
121,
121,
121,
121,
121,
121,
121,
121,
121,
121,
121,
121,
121,
121,
121,
121,
121,
121,
121,
121,
121,
121,
121,
121,
121,
121,
121,
121,
121,
121,
121,
121,
121,
121,
121,
121,
121,
121,
121,
121,
121,
121,
121,
121,
121,
121,
121,
121,
121,
121,
121,
121,
121,
121,
121,
121,
121,
121,
121,
121,
121,
121,
121,
121,
121,
121,
121,
121,
121,
121,
121,
121,
121,
121,
121,
121,
121,
121,
121,
121,
121,
49,
-36,
-82,
-111,
-123,
-134,
-134,
-134,
-134,
-134,
-134,
-134,
-134,
-134,
-134,
-134,
-134,
-134,
-134,
-134,
-134,
-134,
-134,
-134,
-134,
-134,
-134,
-134,
-134,
-134,
-134,
-134,
-134,
-134,
-134,
-134,
-134,
-134,
-134,
-134,
-134,
-134,
-134,
-134,
-134,
-134,
-134,
-134,
-134,
-134,
-134,
-134,
-134,
-134,
-134,
-134,
-134,
-134,
-134,
-134,
-134,
-134,
-134,
-134,
-134,
-134,
-134,
-134,
-134,
-134,
-134,
-134,
-134,
-134,
-134,
-134,
-134,
-134,
-134,
-134,
-134,
-134,
-134,
-134,
-134,
-134,
-134,
-134,
-134,
-134,
-134,
-134,
-134,
-134,
-134,
-134,
-134,
-134,
-134,
-134,
-134,
-134,
-134,
-134,
-134,
-134,
-134,
-134,
-134,
-134,
-134,
-134,
-134,
-134,
-134,
-134,
-134,
-134,
-134,
-134,
-134,
-134,
-134,
-134,
-134,
-134,
-134,
-134,
-134,
-134,
-134,
-134,
-134,
-134,
-134,
-134,
-134,
-134,
-134,
-134,
-134,
-134,
-134,
-134,
-134,
-134,
-134,
-134,
-134,
-134,
-134,
-134,
-134,
-134,
-134,
-134,
-134,
-134,
-134,
-134,
-134,
-134,
-134,
-134,
-134,
-134,
-134,
-134,
-134,
-134,
-134,
-134,
-134,
-134,
-134,
-134,
-134,
-134,
-134,
-134,
-134,
-134,
-134,
-134,
-134,
-134,
-134,
-134,
-134,
-134,
-134,
-134,
-134,
-134,
-134,
-134,
-134,
-134,
-134,
-134,
-134,
-134,
-134,
-134,
-134,
-134,
-134,
-134,
-134,
-134,
-134,
-134,
-134,
-134,
-134,
-134,
-134,
-134,
-134,
-134,
-134,
-134,
-134,
-134,
-134,
-134,
-134,
-134,
-134,
-134,
-134,
-134,
-134,
-134,
-134,
-134,
-134,
-134,
-134,
-134,
-134,
-134,
-134,
-134,
-134,
-134,
-134,
-134,
-134,
-134,
-134,
-134,
-134,
-134,
-134,
-134,
-134,
-134,
-134,
-134,
-134,
-134,
-134,
-134,
-134,
-134,
-134,
-134,
-134,
-134,
-134,
-134,
-134,
-134,
-134,
-134,
-134,
-134,
-134,
-134,
-134,
-134,
-134,
-134,
-134,
-134,
-134,
-134,
-134,
-134,
-134,
-134,
-134,
-134,
-134,
-134,
-134,
-134,
-134,
-134,
-134,
-134,
-134,
-134,
-134,
-134,
-134,
-134,
-134,
-134,
-134,
-134,
-134,
-134,
-134,
-134,
-134,
-134,
-134,
-134,
-134,
-134,
-134,
-134,
-134,
-134,
-134,
-134,
-134,
-134,
-134,
-134,
-134,
-134,
-134,
-134,
-134,
-134,
-134,
-134,
-134,
-134,
-134,
-134,
-134,
-134,
-134,
-134,
-134,
-134,
-134,
-134,
-134,
-134,
-134,
-134,
-134,
-134,
-134,
-134,
-134,
-134,
-134,
-134,
-134,
-134,
-134,
-134,
-134,
-134,
-134,
-134,
-134,
-134,
-134,
-134,
-134,
-134,
-134,
-134,
-134,
-134,
-134,
-134,
-134,
-134,
-134,
-134,
-134,
-134,
-134,
-134,
-134,
-134,
-134,
-134,
-134,
-134,
-134,
-134,
-134,
-134,
-134,
-134,
-134,
-134,
-134,
-134,
-134,
-134,
-134,
-134,
-134,
-134,
-134,
-134,
-134,
-134,
-134,
-134,
-134,
-134,
-134,
-134,
-134,
-134,
-134,
-134,
-134,
-134,
-134,
-134,
-134,
-134,
-134,
-134,
-134,
-134,
-134,
-134,
-134,
-134,
-134,
-134,
-134,
-134,
-134,
-134,
-134,
-134,
-134,
-134,
-134,
-134,
-134,
-134,
-134,
-134,
-134,
-134,
-134,
-134,
-134,
-134,
-134,
-134,
-134,
-134,
-134,
-134,
-134,
-134,
-134,
-134,
-134,
-134,
-134,
-134,
-134,
-134,
-134,
-134,
-134,
-134,
-134,
-134,
-134,
-134,
-134,
-134,
-134,
-134,
-134,
-134,
-134,
-134,
-134,
-134,
-134,
-134,
-66,
28,
72,
108,
121,
121,
121,
121,
121,
121,
121,
121,
121,
121,
121,
121,
121,
121,
121,
121,
121,
121,
121,
121,
121,
121,
121,
121,
121,
121,
121,
121,
121,
121,
121,
121,
121,
121,
121,
121,
121,
121,
121,
121,
121,
121,
121,
121,
121,
121,
121,
121,
121,
121,
121,
121,
121,
121,
121,
121,
121,
121,
121,
121,
121,
121,
121,
121,
121,
121,
121,
121,
121,
121,
121,
121,
121,
121,
121,
121,
121,
121,
121,
121,
121,
121,
121,
121,
121,
121,
121,
121,
121,
121,
121,
121,
121,
121,
121,
121,
121,
121,
121,
121,
121,
121,
121,
121,
121,
121,
121,
121,
121,
121,
121,
121,
121,
121,
121,
121,
121,
121,
121,
121,
121,
121,
121,
121,
121,
121,
121,
121,
121,
121,
121,
121,
121,
121,
121,
121,
121,
121,
121,
121,
121,
121,
121,
121,
121,
121,
121,
121,
121,
121,
121,
121,
121,
121,
121,
121,
121,
121,
121,
121,
121,
121,
121,
121,
121,
121,
121,
121,
121,
121,
121,
121,
121,
121,
121,
121,
121,
121,
121,
121,
121,
121,
121,
121,
121,
121,
121,
121,
121,
121,
121,
121,
121,
121,
121,
121,
121,
121,
121,
121,
121,
121,
121,
121,
121,
121,
121,
121,
121,
121,
121,
121,
121,
121,
121,
121,
121,
121,
121,
121,
121,
121,
121,
121,
121,
121,
121,
121,
121,
121,
121,
121,
121,
121,
121,
121,
121,
121,
121,
121,
121,
121,
121,
121,
121,
121,
121,
121,
121,
121,
121,
121,
121,
121,
121,
121,
121,
121,
121,
121,
121,
121,
121,
121,
121,
121,
121,
121,
121,
121,
121,
121,
121,
121,
121,
121,
121,
121,
121,
121,
121,
121,
121,
121,
121,
121,
121,
121,
121,
121,
121,
121,
121,
121,
121,
121,
121,
121,
121,
121,
121,
121,
121,
121,
121,
121,
121,
121,
121,
121,
121,
121,
121,
121,
121,
121,
121,
121,
121,
121,
121,
121,
121,
121,
121,
121,
121,
121,
121,
121,
121,
121,
121,
121,
121,
121,
121,
121,
121,
121,
121,
121,
121,
121,
121,
121,
121,
121,
121,
121,
121,
121,
121,
121,
121,
121,
121,
121,
121,
121,
121,
121,
121,
121,
121,
121,
121,
121,
121,
121,
121,
121,
121,
121,
121,
121,
121,
121,
121,
121,
121,
121,
121,
121,
121,
121,
121,
121,
121,
121,
121,
121,
121,
121,
121,
121,
121,
121,
121,
121,
121,
121,
121,
121,
121,
121,
121,
121,
121,
121,
121,
121,
121,
121,
121,
121,
121,
121,
121,
121,
121,
121,
121,
121,
121,
121,
121,
121,
121,
121,
121,
121,
121,
121,
121,
121,
121,
121,
121,
121,
121,
121,
121,
121,
121,
121,
121,
121,
121,
121,
121,
121,
121,
121,
121,
121,
121,
121,
121,
121,
121,
121,
121,
121,
121,
121,
121,
121,
121,
121,
121,
121,
121,
121,
121,
121,
121,
121,
121,
121,
121,
121,
121,
121,
121,
121,
121,
121,
121,
121,
121,
121,
121,
121,
121,
121,
121,
121,
68,
-18,
-88,
-113,
-132,
-134,
-134,
-134,
-134,
-134,
-134,
-134,
-134,
-134,
-134,
-134,
-134,
-134,
-134,
-134,
-134,
-134,
-134,
-134,
-134,
-134,
-134,
-134,
-134,
-134,
-134,
-134,
-134,
-134,
-134,
-134,
-134,
-134,
-134,
-134,
-134,
-134,
-134,
-134,
-134,
-134,
-134,
-134,
-134,
-134,
-134,
-134,
-134,
-134,
-134,
-134,
-134,
-134,
-134,
-134,
-134,
-134,
-134,
-134,
-134,
-134,
-134,
-134,
-134,
-134,
-134,
-134,
-134,
-134,
-134,
-134,
-134,
-134,
-134,
-134,
-134,
-134,
-134,
-134,
-134,
-134,
-134,
-134,
-134,
-134,
-134,
-134,
-134,
-134,
-134,
-134,
-134,
-134,
-134,
-134,
-134,
-134,
-134,
-134,
-134,
-134,
-134,
-134,
-134,
-134,
-134,
-134,
-134,
-134,
-134,
-134,
-134,
-134,
-134,
-134,
-134,
-134,
-134,
-134,
-134,
-134,
-134,
-134,
-134,
-134,
-134,
-134,
-134,
-134,
-134,
-134,
-134,
-134,
-134,
-134,
-134,
-134,
-134,
-134,
-134,
-134,
-134,
-134,
-134,
-134,
-134,
-134,
-134,
-134,
-134,
-134,
-134,
-134,
-134,
-134,
-134,
-134,
-134,
-134,
-134,
-134,
-134,
-134,
-134,
-134,
-134,
-134,
-134,
-134,
-134,
-134,
-134,
-134,
-134,
-134,
-134,
-134,
-134,
-134,
-134,
-134,
-134,
-134,
-134,
-134,
-134,
-134,
-134,
-134,
-134,
-134,
-134,
-134,
-134,
-134,
-134,
-134,
-134,
-134,
-134,
-134,
-134,
-134,
-134,
-134,
-134,
-134,
-134,
-134,
-134,
-134,
-134,
-134,
-134,
-134,
-134,
-134,
-134,
-134,
-134,
-134,
-134,
-134,
-134,
-134,
-134,
-134,
-134,
-134,
-134,
-134,
-134,
-134,
-134,
-134,
-134,
-134,
-134,
-134,
-134,
-134,
-134,
-134,
-134,
-134,
-134,
-134,
-134,
-134,
-134,
-134,
-134,
-134,
-134,
-134,
-134,
-134,
-134,
-134,
-134,
-134,
-134,
-134,
-134,
-134,
-134,
-134,
-134,
-134,
-134,
-134,
-134,
-134,
-134,
-134,
-134,
-134,
-134,
-134,
-134,
-134,
-134,
-134,
-134,
-134,
-134,
-134,
-134,
-134,
-134,
-134,
-134,
-134,
-134,
-134,
-134,
-134,
-134,
-134,
-134,
-134,
-134,
-134,
-134,
-134,
-134,
-134,
-134,
-134,
-134,
-134,
-134,
-134,
-134,
-134,
-134,
-134,
-134,
-134,
-134,
-134,
-134,
-134,
-134,
-134,
-134,
-134,
-134,
-134,
-134,
-134,
-134,
-134,
-134,
-134,
-134,
-134,
-134,
-134,
-134,
-134,
-134,
-134,
-134,
-134,
-134,
-134,
-134,
-134,
-134,
-134,
-134,
-134,
-134,
-134,
-134,
-134,
-134,
-134,
-134,
-134,
-134,
-134,
-134,
-134,
-134,
-134,
-134,
-134,
-134,
-134,
-134,
-134,
-134,
-134,
-134,
-134,
-134,
-134,
-134,
-134,
-134,
-134,
-134,
-134,
-134,
-134,
-134,
-134,
-134,
-134,
-134,
-134,
-134,
-134,
-134,
-134,
-134,
-134,
-134,
-134,
-134,
-134,
-134,
-134,
-134,
-134,
-134,
-134,
-134,
-134,
-134,
-134,
-134,
-134,
-134,
-134,
-134,
-134,
-134,
-134,
-134,
-134,
-134,
-134,
-134,
-134,
-134,
-134,
-134,
-134,
-134,
-134,
-134,
-134,
-134,
-134,
-134,
-134,
-134,
-134,
-134,
-134,
-134,
-134,
-134,
-134,
-134,
-134,
-134,
-134,
-134,
-134,
-134,
-134,
-134,
-134,
-134,
-134,
-134,
-134,
-134,
-134,
-134,
-134,
-134,
-134,
-134,
-134,
-134,
-134,
-134,
-134,
-134,
-134,
-134,
-134,
-134,
-134,
-134,
-134,
-134,
-134,
-134,
-134,
-134,
-134,
-134,
-134,
-134,
-134,
-134,
-134,
-134,
-134,
-67,
18,
74,
109,
121,
121,
121,
121,
121,
121,
121,
121,
121,
121,
121,
121,
121,
121,
121,
121,
121,
121,
121,
121,
121,
121,
121,
121,
121,
121,
121,
121,
121,
121,
121,
121,
121,
121,
121,
121,
121,
121,
121,
121,
121,
121,
121,
121,
121,
121,
121,
121,
121,
121,
121,
121,
121,
121,
121,
121,
121,
121,
121,
121,
121,
121,
121,
121,
121,
121,
121,
121,
121,
121,
121,
121,
121,
121,
121,
121,
121,
121,
121,
121,
121,
121,
121,
121,
121,
121,
121,
121,
121,
121,
121,
121,
121,
121,
121,
121,
121,
121,
121,
121,
121,
121,
121,
121,
121,
121,
121,
121,
121,
121,
121,
121,
121,
121,
121,
121,
121,
121,
121,
121,
121,
121,
121,
121,
121,
121,
121,
121,
121,
121,
121,
121,
121,
121,
121,
121,
121,
121,
121,
121,
121,
121,
121,
121,
121,
121,
121,
121,
121,
121,
121,
121,
121,
121,
121,
121,
121,
121,
121,
121,
121,
121,
121,
121,
121,
121,
121,
121,
121,
121,
121,
121,
121,
121,
121,
121,
121,
121,
121,
121,
121,
121,
121,
121,
121,
121,
121,
121,
121,
121,
121,
121,
121,
121,
121,
121,
121,
121,
121,
121,
121,
121,
121,
121,
121,
121,
121,
121,
121,
121,
121,
121,
121,
121,
121,
121,
121,
121,
121,
121,
121,
121,
121,
121,
121,
121,
121,
121,
121,
121,
121,
121,
121,
121,
121,
121,
121,
121,
121,
121,
121,
121,
121,
121,
121,
121,
121,
121,
121,
121,
121,
121,
121,
121,
121,
121,
121,
121,
121,
121,
121,
121,
121,
121,
121,
121,
121,
121,
121,
121,
121,
121,
121,
121,
121,
121,
121,
121,
121,
121,
121,
121,
121,
121,
121,
121,
121,
121,
121,
121,
121,
121,
121,
121,
121,
121,
121,
121,
121,
121,
121,
121,
121,
121,
121,
121,
121,
121,
121,
121,
121,
121,
121,
121,
121,
121,
121,
121,
121,
121,
121,
121,
121,
121,
121,
121,
121,
121,
121,
121,
121,
121,
121,
121,
121,
121,
121,
121,
121,
121,
121,
121,
121,
121,
121,
121,
121,
121,
121,
121,
121,
121,
121,
121,
121,
121,
121,
121,
121,
121,
121,
121,
121,
121,
121,
121,
121,
121,
121,
121,
121,
121,
121,
121,
121,
121,
121,
121,
121,
121,
121,
121,
121,
121,
121,
121,
121,
121,
121,
121,
121,
121,
121,
121,
121,
121,
121,
121,
121,
121,
121,
121,
121,
121,
121,
121,
121,
121,
121,
121,
121,
121,
121,
121,
121,
121,
121,
121,
121,
121,
121,
121,
121,
121,
121,
121,
121,
121,
121,
121,
121,
121,
121,
121,
121,
121,
121,
121,
121,
121,
121,
121,
121,
121,
121,
121,
121,
121,
121,
121,
121,
121,
121,
121,
121,
121,
121,
121,
121,
121,
121,
121,
121,
121,
121,
121,
121,
121,
121,
121,
121,
121,
121,
121,
121,
121,
121,
121,
121,
121,
121,
121,
121,
121,
121,
121,
121,
121,
121,
121,
121,
121,
121,
121,
121,
121,
121,
121,
63,
-12,
-66,
-105,
-130,
-134,
-134,
-134,
-134,
-134,
-134,
-134,
-134,
-134,
-134,
-134,
-134,
-134,
-134,
-134,
-134,
-134,
-134,
-134,
-134,
-134,
-134,
-134,
-134,
-134,
-134,
-134,
-134,
-134,
-134,
-134,
-134,
-134,
-134,
-134,
-134,
-134,
-134,
-134,
-134,
-134,
-134,
-134,
-134,
-134,
-134,
-134,
-134,
-134,
-134,
-134,
-134,
-134,
-134,
-134,
-134,
-134,
-134,
-134,
-134,
-134,
-134,
-134,
-134,
-134,
-134,
-134,
-134,
-134,
-134,
-134,
-134,
-134,
-134,
-134,
-134,
-134,
-134,
-134,
-134,
-134,
-134,
-134,
-134,
-134,
-134,
-134,
-134,
-134,
-134,
-134,
-134,
-134,
-134,
-134,
-134,
-134,
-134,
-134,
-134,
-134,
-134,
-134,
-134,
-134,
-134,
-134,
-134,
-134,
-134,
-134,
-134,
-134,
-134,
-134,
-134,
-134,
-134,
-134,
-134,
-134,
-134,
-134,
-134,
-134,
-134,
-134,
-134,
-134,
-134,
-134,
-134,
-134,
-134,
-134,
-134,
-134,
-134,
-134,
-134,
-134,
-134,
-134,
-134,
-134,
-134,
-134,
-134,
-134,
-134,
-134,
-134,
-134,
-134,
-134,
-134,
-134,
-134,
-134,
-134,
-134,
-134,
-134,
-134,
-134,
-134,
-134,
-134,
-134,
-134,
-134,
-134,
-134,
-134,
-134,
-134,
-134,
-134,
-134,
-134,
-134,
-134,
-134,
-134,
-134,
-134,
-134,
-134,
-134,
-134,
-134,
-134,
-134,
-134,
-134,
-134,
-134,
-134,
-134,
-134,
-134,
-134,
-134,
-134,
-134,
-134,
-134,
-134,
-134,
-134,
-134,
-134,
-134,
-134,
-134,
-134,
-134,
-134,
-134,
-134,
-134,
-134,
-134,
-134,
-134,
-134,
-134,
-134,
-134,
-134,
-134,
-134,
-134,
-134,
-134,
-134,
-134,
-134,
-134,
-134,
-134,
-134,
-134,
-134,
-134,
-134,
-134,
-134,
-134,
-134,
-134,
-134,
-134,
-134,
-134,
-134,
-134,
-134,
-134,
-134,
-134,
-134,
-134,
-134,
-134,
-134,
-134,
-134,
-134,
-134,
-134,
-134,
-134,
-134,
-134,
-134,
-134,
-134,
-134,
-134,
-134,
-134,
-134,
-134,
-134,
-134,
-134,
-134,
-134,
-134,
-134,
-134,
-134,
-134,
-134,
-134,
-134,
-134,
-134,
-134,
-134,
-134,
-134,
-134,
-134,
-134,
-134,
-134,
-134,
-134,
-134,
-134,
-134,
-134,
-134,
-134,
-134,
-134,
-134,
-134,
-134,
-134,
-134,
-134,
-134,
-134,
-134,
-134,
-134,
-134,
-134,
-134,
-134,
-134,
-134,
-134,
-134,
-134,
-134,
-134,
-134,
-134,
-134,
-134,
-134,
-134,
-134,
-134,
-134,
-134,
-134,
-134,
-134,
-134,
-134,
-134,
-134,
-134,
-134,
-134,
-134,
-134,
-134,
-134,
-134,
-134,
-134,
-134,
-134,
-134,
-134,
-134,
-134,
-134,
-134,
-134,
-134,
-134,
-134,
-134,
-134,
-134,
-134,
-134,
-134,
-134,
-134,
-134,
-134,
-134,
-134,
-134,
-134,
-134,
-134,
-134,
-134,
-134,
-134,
-134,
-134,
-134,
-134,
-134,
-134,
-134,
-134,
-134,
-134,
-134,
-134,
-134,
-134,
-134,
-134,
-134,
-134,
-134,
-134,
-134,
-134,
-134,
-134,
-134,
-134,
-134,
-134,
-134,
-134,
-134,
-134,
-134,
-134,
-134,
-134,
-134,
-134,
-134,
-134,
-134,
-134,
-134,
-134,
-134,
-134,
-134,
-134,
-134,
-134,
-134,
-134,
-134,
-134,
-134,
-134,
-134,
-134,
-134,
-134,
-134,
-134,
-134,
-134,
-134,
-134,
-134,
-134,
-134,
-134,
-134,
-134,
-134,
-134,
-134,
-134,
-134,
-134,
-134,
-134,
-134,
-134,
-134,
-134,
-134,
-134,
-134,
-134,
-134,
-134,
-134,
-134,
-134,
-134,
-134,
-134,
-72,
16,
69,
111,
118,
121,
121,
121,
121,
121,
121,
121,
121,
121,
121,
121,
121,
121,
121,
121,
121,
121,
121,
121,
121,
121,
121,
121,
121,
121,
121,
121,
121,
121,
121,
121,
121,
121,
121,
121,
121,
121,
121,
121,
121,
121,
121,
121,
121,
121,
121,
121,
121,
121,
121,
121,
121,
121,
121,
121,
121,
121,
121,
121,
121,
121,
121,
121,
121,
121,
121,
121,
121,
121,
121,
121,
121,
121,
121,
121,
121,
121,
121,
121,
121,
121,
121,
121,
121,
121,
121,
121,
121,
121,
121,
121,
121,
121,
121,
121,
121,
121,
121,
121,
121,
121,
121,
121,
121,
121,
121,
121,
121,
121,
121,
121,
121,
121,
121,
121,
121,
121,
121,
121,
121,
121,
121,
121,
121,
121,
121,
121,
121,
121,
121,
121,
121,
121,
121,
121,
121,
121,
121,
121,
121,
121,
121,
121,
121,
121,
121,
121,
121,
121,
121,
121,
121,
121,
121,
121,
121,
121,
121,
121,
121,
121,
121,
121,
121,
121,
121,
121,
121,
121,
121,
121,
121,
121,
121,
121,
121,
121,
121,
121,
121,
121,
121,
121,
121,
121,
121,
121,
121,
121,
121,
121,
121,
121,
121,
121,
121,
121,
121,
121,
121,
121,
121,
121,
121,
121,
121,
121,
121,
121,
121,
121,
121,
121,
121,
121,
121,
121,
121,
121,
121,
121,
121,
121,
121,
121,
121,
121,
121,
121,
121,
121,
121,
121,
121,
121,
121,
121,
121,
121,
121,
121,
121,
121,
121,
121,
121,
121,
121,
121,
121,
121,
121,
121,
121,
121,
121,
121,
121,
121,
121,
121,
121,
121,
121,
121,
121,
121,
121,
121,
121,
121,
121,
121,
121,
121,
121,
121,
121,
121,
121,
121,
121,
121,
121,
121,
121,
121,
121,
121,
121,
121,
121,
121,
121,
121,
121,
121,
121,
121,
121,
121,
121,
121,
121,
121,
121,
121,
121,
121,
121,
121,
121,
121,
121,
121,
121,
121,
121,
121,
121,
121,
121,
121,
121,
121,
121,
121,
121,
121,
121,
121,
121,
121,
121,
121,
121,
121,
121,
121,
121,
121,
121,
121,
121,
121,
121,
121,
121,
121,
121,
121,
121,
121,
121,
121,
121,
121,
121,
121,
121,
121,
121,
121,
121,
121,
121,
121,
121,
121,
121,
121,
121,
121,
121,
121,
121,
121,
121,
121,
121,
121,
121,
121,
121,
121,
121,
121,
121,
121,
121,
121,
121,
121,
121,
121,
121,
121,
121,
121,
121,
121,
121,
121,
121,
121,
121,
121,
121,
121,
121,
121,
121,
121,
121,
121,
121,
121,
121,
121,
121,
121,
121,
121,
121,
121,
121,
121,
121,
121,
121,
121,
121,
121,
121,
121,
121,
121,
121,
121,
121,
121,
121,
121,
121,
121,
121,
121,
121,
121,
121,
121,
121,
121,
121,
121,
121,
121,
121,
121,
121,
121,
121,
121,
121,
121,
121,
121,
121,
121,
121,
121,
121,
121,
121,
121,
121,
121,
121,
121,
121,
121,
121,
121,
121,
121,
121,
121,
121,
121,
121,
121,
121,
121,
121,
121,
121,
121,
67,
-13,
-63,
-95,
-116,
-134,
-134,
-134,
-134,
-134,
-134,
-134,
-134,
-134,
-134,
-134,
-134,
-134,
-134,
-134,
-134,
-134,
-134,
-134,
-134,
-134,
-134,
-134,
-134,
-134,
-134,
-134,
-134,
-134,
-134,
-134,
-134,
-134,
-134,
-134,
-134,
-134,
-134,
-134,
-134,
-134,
-134,
-134,
-134,
-134,
-134,
-134,
-134,
-134,
-134,
-134,
-134,
-134,
-134,
-134,
-134,
-134,
-134,
-134,
-134,
-134,
-134,
-134,
-134,
-134,
-134,
-134,
-134,
-134,
-134,
-134,
-134,
-134,
-134,
-134,
-134,
-134,
-134,
-134,
-134,
-134,
-134,
-134,
-134,
-134,
-134,
-134,
-134,
-134,
-134,
-134,
-134,
-134,
-134,
-134,
-134,
-134,
-134,
-134,
-134,
-134,
-134,
-134,
-134,
-134,
-134,
-134,
-134,
-134,
