S8_preprocesamiento/data/DS0007.CSV

Memory Length,4000,
Trigger Level,0.000E+00,
Source,CH2,
Probe,1X,
Vertical Units,V,
Vertical Scale,1.000E-02,
Vertical Position,2.400E-03,
Horizontal Units,s,
Horizontal Scale,2.500E-04,
Horizontal Position,0.000E+00,
Horizontal Mode,Main,
Sampling Period,1.000E-06,
Firmware,V1.07,
Time, ,
Mode,Fast,
Waveform Data,
-134,
-134,
121,
121,
121,
121,
121,
121,
121,
121,
121,
121,
121,
121,
121,
121,
121,
121,
121,
121,
121,
121,
121,
121,
121,
121,
121,
121,
121,
121,
121,
121,
121,
121,
121,
121,
121,
121,
121,
121,
121,
121,
121,
121,
121,
121,
121,
121,
121,
121,
121,
121,
121,
121,
121,
121,
121,
121,
121,
121,
121,
121,
121,
121,
121,
121,
121,
121,
121,
121,
121,
121,
121,
121,
121,
121,
121,
121,
121,
121,
121,
121,
121,
121,
121,
121,
121,
121,
121,
121,
121,
121,
121,
121,
121,
121,
121,
121,
121,
121,
121,
121,
121,
121,
121,
121,
121,
121,
121,
121,
121,
121,
121,
121,
121,
121,
121,
121,
121,
121,
121,
121,
121,
121,
121,
121,
121,
121,
121,
121,
121,
121,
121,
121,
121,
121,
121,
121,
121,
121,
121,
121,
121,
121,
121,
121,
121,
121,
121,
121,
121,
121,
121,
121,
121,
121,
121,
121,
121,
121,
121,
121,
121,
121,
121,
121,
121,
121,
121,
121,
121,
121,
121,
121,
121,
121,
121,
121,
121,
121,
121,
121,
121,
121,
121,
121,
121,
121,
121,
121,
121,
121,
121,
121,
121,
121,
121,
121,
121,
121,
121,
121,
121,
121,
121,
121,
121,
121,
121,
121,
121,
121,
121,
121,
121,
121,
121,
121,
121,
121,
121,
121,
121,
121,
121,
121,
121,
121,
121,
121,
121,
121,
121,
121,
121,
121,
121,
121,
121,
121,
121,
121,
121,
121,
121,
121,
121,
121,
121,
121,
121,
121,
121,
121,
121,
121,
121,
121,
121,
121,
121,
121,
121,
121,
121,
121,
121,
121,
121,
121,
121,
121,
121,
121,
121,
121,
121,
121,
121,
121,
121,
121,
121,
121,
121,
121,
121,
121,
121,
121,
121,
121,
121,
121,
121,
121,
121,
121,
121,
121,
121,
121,
121,
121,
121,
121,
121,
121,
121,
121,
121,
121,
121,
121,
121,
121,
121,
121,
121,
121,
121,
121,
121,
121,
121,
121,
121,
121,
121,
121,
121,
121,
121,
121,
121,
121,
121,
121,
121,
121,
121,
121,
121,
121,
121,
121,
121,
121,
121,
121,
121,
121,
121,
121,
121,
121,
121,
121,
121,
121,
121,
121,
121,
121,
121,
121,
121,
121,
121,
121,
121,
121,
121,
121,
121,
121,
121,
121,
121,
121,
121,
121,
121,
121,
121,
121,
121,
121,
121,
121,
121,
121,
121,
121,
121,
121,
121,
121,
121,
121,
121,
121,
121,
121,
121,
121,
121,
121,
121,
121,
121,
121,
121,
121,
121,
121,
121,
121,
121,
121,
121,
121,
121,
121,
121,
121,
121,
121,
121,
121,
121,
121,
121,
121,
121,
121,
121,
121,
121,
121,
121,
121,
121,
121,
121,
121,
121,
121,
121,
121,
121,
121,
121,
121,
121,
121,
121,
121,
121,
121,
121,
121,
121,
121,
121,
121,
121,
121,
121,
121,
121,
121,
121,
121,
121,
121,
121,
121,
121,
121,
121,
121,
121,
121,
121,
121,
121,
121,
121,
121,
121,
121,
121,
121,
121,
121,
121,
121,
65,
-12,
-69,
-95,
-128,
-134,
-134,
-134,
-134,
-134,
-134,
-134,
-134,
-134,
-134,
-134,
-134,
-134,
-134,
-134,
-134,
-134,
-134,
-134,
-134,
-134,
-134,
-134,
-134,
-134,
-134,
-134,
-134,
-134,
-134,
-134,
-134,
-134,
-134,
-134,
-134,
-134,
-134,
-134,
-134,
-134,
-134,
-134,
-134,
-134,
-134,
-134,
-134,
-134,
-134,
-134,
-134,
-134,
-134,
-134,
-134,
-134,
-134,
-134,
-134,
-134,
-134,
-134,
-134,
-134,
-134,
-134,
-134,
-134,
-134,
-134,
-134,
-134,
-134,
-134,
-134,
-134,
-134,
-134,
-134,
-134,
-134,
-134,
-134,
-134,
-134,
-134,
-134,
-134,
-134,
-134,
-134,
-134,
-134,
-134,
-134,
-134,
-134,
-134,
-134,
-134,
-134,
-134,
-134,
-134,
-134,
-134,
-134,
-134,
-134,
-134,
-134,
-134,
-134,
-134,
-134,
-134,
-134,
-134,
-134,
-134,
-134,
-134,
-134,
-134,
-134,
-134,
-134,
-134,
-134,
-134,
-134,
-134,
-134,
-134,
-134,
-134,
-134,
-134,
-134,
-134,
-134,
-134,
-134,
-134,
-134,
-134,
-134,
-134,
-134,
-134,
-134,
-134,
-134,
-134,
-134,
-134,
-134,
-134,
-134,
-134,
-134,
-134,
-134,
-134,
-134,
-134,
-134,
-134,
-134,
-134,
-134,
-134,
-134,
-134,
-134,
-134,
-134,
-134,
-134,
-134,
-134,
-134,
-134,
-134,
-134,
-134,
-134,
-134,
-134,
-134,
-134,
-134,
-134,
-134,
-134,
-134,
-134,
-134,
-134,
-134,
-134,
-134,
-134,
-134,
-134,
-134,
-134,
-134,
-134,
-134,
-134,
-134,
-134,
-134,
-134,
-134,
-134,
-134,
-134,
-134,
-134,
-134,
-134,
-134,
-134,
-134,
-134,
-134,
-134,
-134,
-134,
-134,
-134,
-134,
-134,
-134,
-134,
-134,
-134,
-134,
-134,
-134,
-134,
-134,
-134,
-134,
-134,
-134,
-134,
-134,
-134,
-134,
-134,
-134,
-134,
-134,
-134,
-134,
-134,
-134,
-134,
-134,
-134,
-134,
-134,
-134,
-134,
-134,
-134,
-134,
-134,
-134,
-134,
-134,
-134,
-134,
-134,
-134,
-134,
-134,
-134,
-134,
-134,
-134,
-134,
-134,
-134,
-134,
-134,
-134,
-134,
-134,
-134,
-134,
-134,
-134,
-134,
-134,
-134,
-134,
-134,
-134,
-134,
-134,
-134,
-134,
-134,
-134,
-134,
-134,
-134,
-134,
-134,
-134,
-134,
-134,
-134,
-134,
-134,
-134,
-134,
-134,
-134,
-134,
-134,
-134,
-134,
-134,
-134,
-134,
-134,
-134,
-134,
-134,
-134,
-134,
-134,
-134,
-134,
-134,
-134,
-134,
-134,
-134,
-134,
-134,
-134,
-134,
-134,
-134,
-134,
-134,
-134,
-134,
-134,
-134,
-134,
-134,
-134,
-134,
-134,
-134,
-134,
-134,
-134,
-134,
-134,
-134,
-134,
-134,
-134,
-134,
-134,
-134,
-134,
-134,
-134,
-134,
-134,
-134,
-134,
-134,
-134,
-134,
-134,
-134,
-134,
-134,
-134,
-134,
-134,
-134,
-134,
-134,
-134,
-134,
-134,
-134,
-134,
-134,
-134,
-134,
-134,
-134,
-134,
-134,
-134,
-134,
-134,
-134,
-134,
-134,
-134,
-134,
-134,
-134,
-134,
-134,
-134,
-134,
-134,
-134,
-134,
-134,
-134,
-134,
-134,
-134,
-134,
-134,
-134,
-134,
-134,
-134,
-134,
-134,
-134,
-134,
-134,
-134,
-134,
-134,
-134,
-134,
-134,
-134,
-134,
-134,
-134,
-134,
-134,
-134,
-134,
-134,
-134,
-134,
-134,
-134,
-134,
-134,
-134,
-134,
-134,
-134,
-134,
-134,
-134,
-134,
-134,
-134,
-134,
-134,
-134,
-134,
-134,
-134,
-134,
-134,
-134,
-134,
-134,
-134,
-134,
-134,
-134,
-134,
-134,
-134,
-134,
-134,
-134,
-134,
-134,
-134,
-64,
15,
82,
104,
117,
121,
121,
121,
121,
121,
121,
121,
121,
121,
121,
121,
121,
121,
121,
121,
121,
121,
121,
121,
121,
121,
121,
121,
121,
121,
121,
121,
121,
121,
121,
121,
121,
121,
121,
121,
121,
121,
121,
121,
121,
121,
121,
121,
121,
121,
121,
121,
121,
121,
121,
121,
121,
121,
121,
121,
121,
121,
121,
121,
121,
121,
121,
121,
121,
121,
121,
121,
121,
121,
121,
121,
121,
121,
121,
121,
121,
121,
121,
121,
121,
121,
121,
121,
121,
121,
121,
121,
121,
121,
121,
121,
121,
121,
121,
121,
121,
121,
121,
121,
121,
121,
121,
121,
121,
121,
121,
121,
121,
121,
121,
121,
121,
121,
121,
121,
121,
121,
121,
121,
121,
121,
121,
121,
121,
121,
121,
121,
121,
121,
121,
121,
121,
121,
121,
121,
121,
121,
121,
121,
121,
121,
121,
121,
121,
121,
121,
121,
121,
121,
121,
121,
121,
121,
121,
121,
121,
121,
121,
121,
121,
121,
121,
121,
121,
121,
121,
121,
121,
121,
121,
121,
121,
121,
121,
121,
121,
121,
121,
121,
121,
121,
121,
121,
121,
121,
121,
121,
121,
121,
121,
121,
121,
121,
121,
121,
121,
121,
121,
121,
121,
121,
121,
121,
121,
121,
121,
121,
121,
121,
121,
121,
121,
121,
121,
121,
121,
121,
121,
121,
121,
121,
121,
121,
121,
121,
121,
121,
121,
121,
121,
121,
121,
121,
121,
121,
121,
121,
121,
121,
121,
121,
121,
121,
121,
121,
121,
121,
121,
121,
121,
121,
121,
121,
121,
121,
121,
121,
121,
121,
121,
121,
121,
121,
121,
121,
121,
121,
121,
121,
121,
121,
121,
121,
121,
121,
121,
121,
121,
121,
121,
121,
121,
121,
121,
121,
121,
121,
121,
121,
121,
121,
121,
121,
121,
121,
121,
121,
121,
121,
121,
121,
121,
121,
121,
121,
121,
121,
121,
121,
121,
121,
121,
121,
121,
121,
121,
121,
121,
121,
121,
121,
121,
121,
121,
121,
121,
121,
121,
121,
121,
121,
121,
121,
121,
121,
121,
121,
121,
121,
121,
121,
121,
121,
121,
121,
121,
121,
121,
121,
121,
121,
121,
121,
121,
121,
121,
121,
121,
121,
121,
121,
121,
121,
121,
121,
121,
121,
121,
121,
121,
121,
121,
121,
121,
121,
121,
121,
121,
121,
121,
121,
121,
121,
121,
121,
121,
121,
121,
121,
121,
121,
121,
121,
121,
121,
121,
121,
121,
121,
121,
121,
121,
121,
121,
121,
121,
121,
121,
121,
121,
121,
121,
121,
121,
121,
121,
121,
121,
121,
121,
121,
121,
121,
121,
121,
121,
121,
121,
121,
121,
121,
121,
121,
121,
121,
121,
121,
121,
121,
121,
121,
121,
121,
121,
121,
121,
121,
121,
121,
121,
121,
121,
121,
121,
121,
121,
121,
121,
121,
121,
121,
121,
121,
121,
121,
121,
121,
121,
121,
121,
121,
121,
121,
121,
121,
121,
121,
121,
121,
121,
121,
121,
121,
121,
121,
121,
121,
121,
121,
121,
121,
121,
121,
121,
121,
121,
121,
50,
-36,
-83,
-114,
-134,
-134,
-134,
-134,
-134,
-134,
-134,
-134,
-134,
-134,
-134,
-134,
-134,
-134,
-134,
-134,
-134,
-134,
-134,
-134,
-134,
-134,
-134,
-134,
-134,
-134,
-134,
-134,
-134,
-134,
-134,
-134,
-134,
-134,
-134,
-134,
-134,
-134,
-134,
-134,
-134,
-134,
-134,
-134,
-134,
-134,
-134,
-134,
-134,
-134,
-134,
-134,
-134,
-134,
-134,
-134,
-134,
-134,
-134,
-134,
-134,
-134,
-134,
-134,
-134,
-134,
-134,
-134,
-134,
-134,
-134,
-134,
-134,
-134,
-134,
-134,
-134,
-134,
-134,
-134,
-134,
-134,
-134,
-134,
-134,
-134,
-134,
-134,
-134,
-134,
-134,
-134,
-134,
-134,
-134,
-134,
-134,
-134,
-134,
-134,
-134,
-134,
-134,
-134,
-134,
-134,
-134,
-134,
-134,
-134,
-134,
-134,
-134,
-134,
-134,
-134,
-134,
-134,
-134,
-134,
-134,
-134,
-134,
-134,
-134,
-134,
-134,
-134,
-134,
-134,
-134,
-134,
-134,
-134,
-134,
-134,
-134,
-134,
-134,
-134,
-134,
-134,
-134,
-134,
-134,
-134,
-134,
-134,
-134,
-134,
-134,
-134,
-134,
-134,
-134,
-134,
-134,
-134,
-134,
-134,
-134,
-134,
-134,
-134,
-134,
-134,
-134,
-134,
-134,
-134,
-134,
-134,
-134,
-134,
-134,
-134,
-134,
-134,
-134,
-134,
-134,
-134,
-134,
-134,
-134,
-134,
-134,
-134,
-134,
-134,
-134,
-134,
-134,
-134,
-134,
-134,
-134,
-134,
-134,
-134,
-134,
-134,
-134,
-134,
-134,
-134,
-134,
-134,
-134,
-134,
-134,
-134,
-134,
-134,
-134,
-134,
-134,
-134,
-134,
-134,
-134,
-134,
-134,
-134,
-134,
-134,
-134,
-134,
-134,
-134,
-134,
-134,
-134,
-134,
-134,
-134,
-134,
-134,
-134,
-134,
-134,
-134,
-134,
-134,
-134,
-134,
-134,
-134,
-134,
-134,
-134,
-134,
-134,
-134,
-134,
-134,
-134,
-134,
-134,
-134,
-134,
-134,
-134,
-134,
-134,
-134,
-134,
-134,
-134,
-134,
-134,
-134,
-134,
-134,
-134,
-134,
-134,
-134,
-134,
-134,
-134,
-134,
-134,
-134,
-134,
-134,
-134,
-134,
-134,
-134,
-134,
-134,
-134,
-134,
-134,
-134,
-134,
-134,
-134,
-134,
-134,
-134,
-134,
-134,
-134,
-134,
-134,
-134,
-134,
-134,
-134,
-134,
-134,
-134,
-134,
-134,
-134,
-134,
-134,
-134,
-134,
-134,
-134,
-134,
-134,
-134,
-134,
-134,
-134,
-134,
-134,
-134,
-134,
-134,
-134,
-134,
-134,
-134,
-134,
-134,
-134,
-134,
-134,
-134,
-134,
-134,
-134,
-134,
-134,
-134,
-134,
-134,
-134,
-134,
-134,
-134,
-134,
-134,
-134,
-134,
-134,
-134,
-134,
-134,
-134,
-134,
-134,
-134,
-134,
-134,
-134,
-134,
-134,
-134,
-134,
-134,
-134,
-134,
-134,
-134,
-134,
-134,
-134,
-134,
-134,
-134,
-134,
-134,
-134,
-134,
-134,
-134,
-134,
-134,
-134,
-134,
-134,
-134,
-134,
-134,
-134,
-134,
-134,
-134,
-134,
-134,
-134,
-134,
-134,
-134,
-134,
-134,
-134,
-134,
-134,
-134,
-134,
-134,
-134,
-134,
-134,
-134,
-134,
-134,
-134,
-134,
-134,
-134,
-134,
-134,
-134,
-134,
-134,
-134,
-134,
-134,
-134,
-134,
-134,
-134,
-134,
-134,
-134,
-134,
-134,
-134,
-134,
-134,
-134,
-134,
-134,
-134,
-134,
-134,
-134,
-134,
-134,
-134,
-134,
-134,
-134,
-134,
-134,
-134,
-134,
-134,
-134,
-134,
-134,
-134,
-134,
-134,
-134,
-134,
-134,
-134,
-134,
-134,
-134,
-134,
-134,
-134,
-134,
-134,
-134,
-134,
-134,
-134,
-134,
-134,
-134,
-134,
-134,
-134,
-134,
-134,
-51,
29,
79,
109,
121,
121,
121,
121,
121,
121,
121,
121,
121,
121,
121,
121,
121,
121,
121,
121,
121,
121,
121,
121,
121,
121,
121,
121,
121,
121,
121,
121,
121,
121,
121,
121,
121,
121,
121,
121,
121,
121,
121,
121,
121,
121,
121,
121,
121,
121,
121,
121,
121,
121,
121,
121,
121,
121,
121,
121,
121,
121,
121,
121,
121,
121,
121,
121,
121,
121,
121,
121,
121,
121,
121,
121,
121,
121,
121,
121,
121,
121,
121,
121,
121,
121,
121,
121,
121,
121,
121,
121,
121,
121,
121,
121,
121,
121,
121,
121,
121,
121,
121,
121,
121,
121,
121,
121,
121,
121,
121,
121,
121,
121,
121,
121,
121,
121,
121,
121,
121,
121,
121,
121,
121,
121,
121,
121,
121,
121,
121,
121,
121,
121,
121,
121,
121,
121,
121,
121,
121,
121,
121,
121,
121,
121,
121,
121,
121,
121,
121,
121,
121,
121,
121,
121,
121,
121,
121,
121,
121,
121,
121,
121,
121,
121,
121,
121,
121,
121,
121,
121,
121,
121,
121,
121,
121,
121,
121,
121,
121,
121,
121,
121,
121,
121,
121,
121,
121,
121,
121,
121,
121,
121,
121,
121,
121,
121,
121,
121,
121,
121,
121,
121,
121,
121,
121,
121,
121,
121,
121,
121,
121,
121,
121,
121,
121,
121,
121,
121,
121,
121,
121,
121,
121,
121,
121,
121,
121,
121,
121,
121,
121,
121,
121,
121,
121,
121,
121,
121,
121,
121,
121,
121,
121,
121,
121,
121,
121,
121,
121,
121,
121,
121,
121,
121,
121,
121,
121,
121,
121,
121,
121,
121,
121,
121,
121,
121,
121,
121,
121,
121,
121,
121,
121,
121,
121,
121,
121,
121,
121,
121,
121,
121,
121,
121,
121,
121,
121,
121,
121,
121,
121,
121,
121,
121,
121,
121,
121,
121,
121,
121,
121,
121,
121,
121,
121,
121,
121,
121,
121,
121,
121,
121,
121,
121,
121,
121,
121,
121,
121,
121,
121,
121,
121,
121,
121,
121,
121,
121,
121,
121,
121,
121,
121,
121,
121,
121,
121,
121,
121,
121,
121,
121,
121,
121,
121,
121,
121,
121,
121,
121,
121,
121,
121,
121,
121,
121,
121,
121,
121,
121,
121,
121,
121,
121,
121,
121,
121,
121,
121,
121,
121,
121,
121,
121,
121,
121,
121,
121,
121,
121,
121,
121,
121,
121,
121,
121,
121,
121,
121,
121,
121,
121,
121,
121,
121,
121,
121,
121,
121,
121,
121,
121,
121,
121,
121,
121,
121,
121,
121,
121,
121,
121,
121,
121,
121,
121,
121,
121,
121,
121,
121,
121,
121,
121,
121,
121,
121,
121,
121,
121,
121,
121,
121,
121,
121,
121,
121,
121,
121,
121,
121,
121,
121,
121,
121,
121,
121,
121,
121,
121,
121,
121,
121,
121,
121,
121,
121,
121,
121,
121,
121,
121,
121,
121,
121,
121,
121,
121,
121,
121,
121,
121,
121,
121,
121,
121,
121,
121,
121,
121,
121,
121,
121,
121,
121,
121,
121,
121,
121,
121,
121,
121,
121,
121,
121,
121,
121,
121,
121,
121,
32,
-31,
-80,
-119,
-134,
-134,
-134,
-134,
-134,
-134,
-134,
-134,
-134,
-134,
-134,
-134,
-134,
-134,
-134,
-134,
-134,
-134,
-134,
-134,
-134,
-134,
-134,
-134,
-134,
-134,
-134,
-134,
-134,
-134,
-134,
-134,
-134,
-134,
-134,
-134,
-134,
-134,
-134,
-134,
-134,
-134,
-134,
-134,
-134,
-134,
-134,
-134,
-134,
-134,
-134,
-134,
-134,
-134,
-134,
-134,
-134,
-134,
-134,
-134,
-134,
-134,
-134,
-134,
-134,
-134,
-134,
-134,
-134,
-134,
-134,
-134,
-134,
-134,
-134,
-134,
-134,
-134,
-134,
-134,
-134,
-134,
-134,
-134,
-134,
-134,
-134,
-134,
-134,
-134,
-134,
-134,
-134,
-134,
-134,
-134,
-134,
-134,
-134,
-134,
-134,
-134,
-134,
-134,
-134,
-134,
-134,
-134,
-134,
-134,
-134,
-134,
-134,
-134,
-134,
-134,
-134,
-134,
-134,
-134,
-134,
-134,
-134,
-134,
-134,
-134,
-134,
-134,
-134,
-134,
-134,
-134,
-134,
-134,
-134,
-134,
-134,
-134,
-134,
-134,
-134,
-134,
-134,
-134,
-134,
-134,
-134,
-134,
-134,
-134,
-134,
-134,
-134,
-134,
-134,
-134,
-134,
-134,
-134,
-134,
-134,
-134,
-134,
-134,
-134,
-134,
-134,
-134,
-134,
-134,
-134,
-134,
-134,
-134,
-134,
-134,
-134,
-134,
-134,
-134,
-134,
-134,
-134,
-134,
-134,
-134,
-134,
-134,
-134,
-134,
-134,
-134,
-134,
-134,
-134,
-134,
-134,
-134,
-134,
-134,
-134,
-134,
-134,
-134,
-134,
-134,
-134,
-134,
-134,
-134,
-134,
-134,
-134,
-134,
-134,
-134,
-134,
-134,
-134,
-134,
-134,
-134,
-134,
-134,
-134,
-134,
-134,
-134,
-134,
-134,
-134,
-134,
-134,
-134,
-134,
-134,
-134,
-134,
-134,
-134,
-134,
-134,
-134,
-134,
-134,
-134,
-134,
-134,
-134,
-134,
-134,
-134,
-134,
-134,
-134,
-134,
-134,
-134,
-134,
-134,
-134,
-134,
-134,
-134,
-134,
-134,
-134,
-134,
-134,
-134,
-134,
-134,
-134,
-134,
-134,
-134,
-134,
-134,
-134,
-134,
-134,
-134,
-134,
-134,
-134,
-134,
-134,
-134,
-134,
-134,
-134,
-134,
-134,
-134,
-134,
-134,
-134,
-134,
-134,
-134,
-134,
-134,
-134,
-134,
-134,
-134,
-134,
-134,
-134,
-134,
-134,
-134,
-134,
-134,
-134,
-134,
-134,
-134,
-134,
-134,
-134,
-134,
-134,
-134,
-134,
-134,
-134,
-134,
-134,
-134,
-134,
-134,
-134,
-134,
-134,
-134,
-134,
-134,
-134,
-134,
-134,
-134,
-134,
-134,
-134,
-134,
-134,
-134,
-134,
-134,
-134,
-134,
-134,
-134,
-134,
-134,
-134,
-134,
-134,
-134,
-134,
-134,
-134,
-134,
-134,
-134,
-134,
-134,
-134,
-134,
-134,
-134,
-134,
-134,
-134,
-134,
-134,
-134,
-134,
-134,
-134,
-134,
-134,
-134,
-134,
-134,
-134,
-134,
-134,
-134,
-134,
-134,
-134,
-134,
-134,
-134,
-134,
-134,
-134,
-134,
-134,
-134,
-134,
-134,
-134,
-134,
-134,
-134,
-134,
-134,
-134,
-134,
-134,
-134,
-134,
-134,
-134,
-134,
-134,
-134,
-134,
-134,
-134,
-134,
-134,
-134,
-134,
-134,
-134,
-134,
-134,
-134,
-134,
-134,
-134,
-134,
-134,
-134,
-134,
-134,
-134,
-134,
-134,
-134,
-134,
-134,
-134,
-134,
-134,
-134,
-134,
-134,
-134,
-134,
-134,
-134,
-134,
-134,
-134,
-134,
-134,
-134,
-134,
-134,
-134,
-134,
-134,
-134,
-134,
-134,
-134,
-134,
-134,
-134,
-134,
-134,
-134,
-134,
-134,
-134,
-134,
-134,
-134,
-134,
-134,
-134,
-134,
-134,
-134,
-134,
-134,
-134,
-134,
-134,
-134,
-124,
-19,
51,
93,
120,
121,
121,
121,
121,
121,
121,
121,
121,
121,
121,
121,
121,
121,
121,
121,
121,
121,
121,
121,
121,
121,
121,
121,
121,
121,
121,
121,
121,
121,
121,
121,
121,
121,
121,
121,
121,
121,
121,
121,
121,
121,
121,
121,
121,
121,
121,
121,
121,
121,
121,
121,
121,
121,
121,
121,
121,
121,
121,
121,
121,
121,
121,
121,
121,
121,
121,
121,
121,
121,
121,
121,
121,
121,
121,
121,
121,
121,
121,
121,
121,
121,
121,
121,
121,
121,
121,
121,
121,
121,
121,
121,
121,
121,
121,
121,
121,
121,
121,
121,
121,
121,
121,
121,
121,
121,
121,
121,
121,
121,
121,
121,
121,
121,
121,
121,
121,
121,
121,
121,
121,
121,
121,
121,
121,
121,
121,
121,
121,
121,
121,
121,
121,
121,
121,
121,
121,
121,
121,
121,
121,
121,
121,
121,
121,
121,
121,
121,
121,
121,
121,
121,
121,
121,
121,
121,
121,
121,
121,
121,
121,
121,
121,
121,
121,
121,
121,
121,
121,
121,
121,
121,
121,
121,
121,
121,
121,
121,
121,
121,
121,
121,
121,
121,
121,
121,
121,
121,
121,
121,
121,
121,
121,
121,
121,
121,
121,
121,
121,
121,
121,
121,
121,
121,
121,
121,
121,
121,
121,
121,
121,
121,
121,
121,
121,
121,
121,
121,
121,
121,
121,
121,
121,
121,
121,
121,
121,
121,
121,
121,
121,
121,
121,
121,
121,
121,
121,
121,
121,
121,
121,
121,
121,
121,
121,
121,
121,
121,
121,
121,
121,
121,
121,
121,
121,
121,
121,
121,
121,
121,
121,
121,
121,
121,
121,
121,
121,
121,
121,
121,
121,
121,
121,
121,
121,
121,
121,
121,
121,
121,
121,
121,
121,
121,
121,
121,
121,
121,
121,
121,
121,
121,
121,
121,
121,
121,
121,
121,
121,
121,
121,
121,
121,
121,
121,
121,
121,
121,
121,
121,
121,
121,
121,
121,
121,
121,
121,
121,
121,
121,
121,
121,
121,
121,
121,
121,
121,
121,
121,
121,
121,
121,
121,
121,
121,
121,
121,
121,
121,
121,
121,
121,
121,
121,
121,
121,
121,
121,
121,
121,
121,
121,
121,
121,
121,
121,
121,
121,
121,
121,
121,
121,
121,
121,
121,
121,
121,
121,
121,
121,
121,
121,
121,
121,
121,
121,
121,
121,
121,
121,
121,
121,
121,
121,
121,
121,
121,
121,
121,
121,
121,
121,
121,
121,
121,
121,
121,
121,
121,
121,
121,
121,
121,
121,
121,
121,
121,
121,
121,
121,
121,
121,
121,
121,
121,
121,
121,
121,
121,
121,
121,
121,
121,
121,
121,
121,
121,
121,
121,
121,
121,
121,
121,
121,
121,
121,
121,
121,
121,
121,
121,
121,
121,
121,
121,
121,
121,
121,
121,
121,
121,
121,
121,
121,
121,
121,
121,
121,
121,
121,
121,
121,
121,
121,
121,
121,
121,
121,
121,
121,
121,
121,
121,
121,
121,
121,
121,
121,
121,
121,
121,
121,
121,
121,
121,
121,
121,
121,
121,
121,
121,
121,
121,
121,
121,
121,
121,
121,
84,
-8,
-74,
-101,
-127,
-132,
-134,
-134,
-134,
-134,
-134,
-134,
-134,
-134,
-134,
-134,
-134,
-134,
-134,
-134,
-134,
-134,
-134,
-134,
-134,
-134,
-134,
-134,
-134,
-134,
-134,
-134,
-134,
-134,
-134,
-134,
-134,
-134,
-134,
-134,
-134,
-134,
-134,
-134,
-134,
-134,
-134,
-134,
-134,
-134,
-134,
-134,
-134,
-134,
-134,
-134,
-134,
-134,
-134,
-134,
-134,
-134,
-134,
-134,
-134,
-134,
-134,
-134,
-134,
-134,
-134,
-134,
-134,
-134,
-134,
-134,
-134,
-134,
-134,
-134,
-134,
-134,
-134,
-134,
-134,
-134,
-134,
-134,
-134,
-134,
-134,
-134,
-134,
-134,
-134,
-134,
-134,
-134,
-134,
-134,
-134,
-134,
-134,
-134,
-134,
-134,
-134,
-134,
-134,
-134,
-134,
-134,
-134,
-134,
